{
    "allContacts":
    [
       {"name": "강계선","phone": "01021318231"},
       {"name": "강귀자","phone": "01089786551"},
       {"name": "강금자","phone": "01190232086"},
       {"name": "강덕근","phone": "0117132888"},
       {"name": "강동희","phone": "01081544818"},
       {"name": "강모영","phone": "0167621150"},
       {"name": "강봉자","phone": "01087095270"},
       {"name": "강석찬","phone": "01023324216"},
       {"name": "강성은","phone": "01093490030"},
       {"name": "강원구","phone": "01037244831"},
       {"name": "강은경","phone": "01032953195"},
       {"name": "강은정","phone": "01035974818"},
       {"name": "강인선","phone": "01096630518"},
       {"name": "강정훈","phone": "01071755116"},
       {"name": "강정훈","phone": "01071755116"},
       {"name": "강태욱","phone": "01046056990"},
       {"name": "강태준","phone": "01071243265"},
       {"name": "강호정","phone": "01063774818"},
       {"name": "강환우","phone": "0193563345"},
       {"name": "강희영","phone": "01058780827"},
       {"name": "고경다","phone": "01056435278"},
       {"name": "고국환","phone": "01084350308"},
       {"name": "고담","phone": "0188598541"},
       {"name": "고동열","phone": "01051319183"},
       {"name": "고모범","phone": "01029985853"},
       {"name": "고상현","phone": "01194972131"},
       {"name": "고선자","phone": "01085768988"},
       {"name": "고수영","phone": "01083202952"},
       {"name": "고순희","phone": "01093658415"},
       {"name": "고숭옥","phone": "01089144551"},
       {"name": "고숭옥","phone": "01089144551"},
       {"name": "고숭옥","phone": "01089144551"},
       {"name": "고애리","phone": "01076240207"},
       {"name": "고애리","phone": "01076240207"},
       {"name": "고영문","phone": "01090227157"},
       {"name": "고영문","phone": "01090227157"},
       {"name": "고영숙","phone": "01075999904"},
       {"name": "고영순","phone": "01052778445"},
       {"name": "고영일","phone": "01096545100"},
       {"name": "고유리","phone": "01057557157"},
       {"name": "고유리","phone": "01057557157"},
       {"name": "고정식","phone": "01024737680"},
       {"name": "고주명","phone": "01053459500"},
       {"name": "공민주","phone": "01034633119"},
       {"name": "공민주","phone": "01034633119"},
       {"name": "공민주","phone": "01034633119"},
       {"name": "공민주교사(어린이부)","phone": "01034633119"},
       {"name": "공석찬","phone": "01088813119"},
       {"name": "공석찬","phone": "01088813119"},
       {"name": "공순영","phone": "01033056008"},
       {"name": "공주임","phone": "01073790087"},
       {"name": "공주임","phone": "01071461103"},
       {"name": "공지훈","phone": "01099123119"},
       {"name": "공지훈","phone": "01099123119"},
       {"name": "공지훈","phone": "01099123119"},
       {"name": "곽영애","phone": "01032264890"},
       {"name": "곽영애","phone": "01032264890"},
       {"name": "곽영애","phone": "01032264890"},
       {"name": "곽영희","phone": "01088212519"},
       {"name": "곽효숙","phone": "0117765273"},
       {"name": "구룽","phone": "01031401082"},
       {"name": "구재수","phone": "01043115044"},
       {"name": "구정철","phone": "01197087800"},
       {"name": "국정순","phone": "0173312044"},
       {"name": "국정순","phone": "0173312044"},
       {"name": "권기석","phone": "01027201300"},
       {"name": "권기석","phone": "01027201300"},
       {"name": "권민석","phone": "01072057790"},
       {"name": "권성인","phone": "0113133450"},
       {"name": "권순재","phone": "01054811281"},
       {"name": "권양택","phone": "01026002355"},
       {"name": "권영심","phone": "0193017412"},
       {"name": "권오성","phone": "01037978226"},
       {"name": "권오성","phone": "0117978226"},
       {"name": "권용자","phone": "01038913851"},
       {"name": "권중식","phone": "01084495086"},
       {"name": "권중업","phone": "01192099200"},
       {"name": "권춘자","phone": "01036773566"},
       {"name": "권태호","phone": "01027329200"},
       {"name": "권태희","phone": "0112762470"},
       {"name": "권혁부","phone": "01086049770"},
       {"name": "권혁인","phone": "01086104185"},
       {"name": "권혁일","phone": "01044337790"},
       {"name": "권혁희","phone": "01062841616"},
       {"name": "권혜정","phone": "0164829205"},
       {"name": "권희재","phone": "01036624482"},
       {"name": "길순례","phone": "0113009930"},
       {"name": "길은례","phone": "01053009930"},
       {"name": "김가은","phone": "0117873657"},
       {"name": "김건철","phone": "0112257811"},
       {"name": "김건희(권사)","phone": "01057515470"},
       {"name": "김경민","phone": "01036878971"},
       {"name": "김경식","phone": "01032226960"},
       {"name": "김경심","phone": "0173624658"},
       {"name": "김경원","phone": "01098766675"},
       {"name": "김경현","phone": "01030778581"},
       {"name": "김관용","phone": "01087158865"},
       {"name": "김관용","phone": "01087158865"},
       {"name": "김관용","phone": "01087158865"},
       {"name": "김관용","phone": "01087158865"},
       {"name": "김관용","phone": "01087158865"},
       {"name": "김광석","phone": "01027305702"},
       {"name": "김광섭","phone": "01077236834"},
       {"name": "김광섭","phone": "01077236834"},
       {"name": "김광집","phone": "01039678700"},
       {"name": "김광현","phone": "01031255424"},
       {"name": "김광호","phone": "01042922500"},
       {"name": "김규섭","phone": "01022991608"},
       {"name": "김금선(원순이)","phone": "0117822000"},
       {"name": "김기아","phone": "01197261475"},
       {"name": "김기자","phone": "01067651221"},
       {"name": "김기평","phone": "01043276263"},
       {"name": "김기혁","phone": "01022618143"},
       {"name": "김길곤","phone": "01033203345"},
       {"name": "김길분","phone": "0162755500"},
       {"name": "김길성","phone": "01029557460"},
       {"name": "김길심","phone": "01066674264"},
       {"name": "김길심","phone": "01066674264"},
       {"name": "김길심","phone": "01066674264"},
       {"name": "김길심","phone": "01066674264"},
       {"name": "김길심","phone": "01066674264"},
       {"name": "김나영","phone": "01052822938"},
       {"name": "김남석","phone": "01052341508"},
       {"name": "김남훈","phone": "01087117693"},
       {"name": "김남희 꽃집","phone": "0116621174"},
       {"name": "김대영","phone": "01047403174"},
       {"name": "김덕수","phone": "01052840362"},
       {"name": "김덕순","phone": "01067887716"},
       {"name": "김도곤","phone": "01052239479"},
       {"name": "김도윤","phone": "0182351742"},
       {"name": "김동성","phone": "01083793516"},
       {"name": "김동심","phone": "01030069290"},
       {"name": "김동예","phone": "01066252613"},
       {"name": "김동필","phone": "0162341863"},
       {"name": "김동현","phone": "01042342832"},
       {"name": "김두리","phone": "01083996390"},
       {"name": "김두선","phone": "01062476254"},
       {"name": "김만봉","phone": "01052374020"},
       {"name": "김만봉","phone": "01052374020"},
       {"name": "김명수","phone": "01047514926"},
       {"name": "김명숙","phone": "01050223865"},
       {"name": "김명숙","phone": "01050223865"},
       {"name": "김명숙","phone": "01050223865"},
       {"name": "김명숙","phone": "01050223865"},
       {"name": "김명조","phone": "01040558788"},
       {"name": "김명희","phone": "01037491480"},
       {"name": "김무성","phone": "01037060267"},
       {"name": "김문배","phone": "01992328949"},
       {"name": "김문선","phone": "0112402764"},
       {"name": "김문자","phone": "01042545292"},
       {"name": "김미숙","phone": "01025086061"},
       {"name": "김미혜","phone": "01057698117"},
       {"name": "김미혜","phone": "01057698117"},
       {"name": "김미혜","phone": "01057698117"},
       {"name": "김미혜","phone": "01057698117"},
       {"name": "김미희","phone": "01050143567"},
       {"name": "김민경","phone": "01099388353"},
       {"name": "김민서","phone": "01050126231"},
       {"name": "김민섭","phone": "01023522589"},
       {"name": "김민수","phone": "01030491226"},
       {"name": "김배인","phone": "01065005781"},
       {"name": "김범태","phone": "01054437527"},
       {"name": "김병국","phone": "01052430806"},
       {"name": "김보람","phone": "01037399208"},
       {"name": "김복수","phone": "0117656495"},
       {"name": "김봉묵","phone": "01037248039"},
       {"name": "김봉숙","phone": "01062447343"},
       {"name": "김봉형","phone": "01020741135"},
       {"name": "김상근","phone": "01093987001"},
       {"name": "김상조","phone": "01023350355"},
       {"name": "김상현","phone": "0113175782"},
       {"name": "김상현","phone": "01092845782"},
       {"name": "김서순","phone": "01083173623"},
       {"name": "김석우","phone": "01027520921"},
       {"name": "김석회","phone": "01052593352"},
       {"name": "김선숙","phone": "01053960926"},
       {"name": "김선숙","phone": "01053960926"},
       {"name": "김선영","phone": "01064253973"},
       {"name": "김선행","phone": "01043594911"},
       {"name": "김성대","phone": "01190800550"},
       {"name": "김성원","phone": "01046619796"},
       {"name": "김성일","phone": "01036866256"},
       {"name": "김성일","phone": "01036866256"},
       {"name": "김성일","phone": "0112631895"},
       {"name": "김성철","phone": "01036640646"},
       {"name": "김성환","phone": "01072005366"},
       {"name": "김성환","phone": "01028741365"},
       {"name": "김성희","phone": "01052032795"},
       {"name": "김성희","phone": "01052032795"},
       {"name": "김세나","phone": "01099388353"},
       {"name": "김세라","phone": "01050058010"},
       {"name": "김세라","phone": "01050058010"},
       {"name": "김소연","phone": "01029720265"},
       {"name": "김소영","phone": "01087255370"},
       {"name": "김송희","phone": "01067786602"},
       {"name": "김수안","phone": "01052983455"},
       {"name": "김수정","phone": "01092232605"},
       {"name": "김수정","phone": "0163806639"},
       {"name": "김수진","phone": "01099408486"},
       {"name": "김수홍","phone": "01038970458"},
       {"name": "김수희","phone": "01024693570"},
       {"name": "김숙영","phone": "01198766223"},
       {"name": "김숙희","phone": "01197185455"},
       {"name": "김순기","phone": "01073695270"},
       {"name": "김순애","phone": "01076768296"},
       {"name": "김순영","phone": "01077599769"},
       {"name": "김승경","phone": "01022264661"},
       {"name": "김승희","phone": "0173109193"},
       {"name": "김시내","phone": "01087526596"},
       {"name": "김신정","phone": "01091797921"},
       {"name": "김애리","phone": "01093839208"},
       {"name": "김애리","phone": "01093839208"},
       {"name": "김애리 유병일","phone": "01077552864"},
       {"name": "김영구","phone": "01020606948"},
       {"name": "김영구","phone": "01020606948"},
       {"name": "김영란","phone": "01088944676"},
       {"name": "김영린","phone": "01024422486"},
       {"name": "김영미(김관용누나)","phone": "01030114022"},
       {"name": "김영석","phone": "01042590813"},
       {"name": "김영석","phone": "01042590813"},
       {"name": "김영성","phone": "0112111328"},
       {"name": "김영수","phone": "01030071138"},
       {"name": "김영숙","phone": "01067074919"},
       {"name": "김영숙(청년)","phone": "01067074919"},
       {"name": "김영순","phone": "01091232773"},
       {"name": "김영순","phone": "01091232773"},
       {"name": "김영업","phone": "0117059201"},
       {"name": "김영은","phone": "0176118123"},
       {"name": "김영임","phone": "01022859530"},
       {"name": "김영진","phone": "01062578568"},
       {"name": "김영진","phone": "01062578568"},
       {"name": "김영진","phone": "01062578568"},
       {"name": "김영진(부)","phone": "01062578568"},
       {"name": "김영진교사(어린이부)","phone": "01062578568"},
       {"name": "김영철","phone": "01066623921"},
       {"name": "김영춘","phone": "01031171478"},
       {"name": "김영화","phone": "01057912918"},
       {"name": "김영환","phone": "01030017862"},
       {"name": "김영희","phone": "01088631798"},
       {"name": "김영희","phone": "01088631798"},
       {"name": "김영희","phone": "01088631798"},
       {"name": "김영희","phone": "01088631798"},
       {"name": "김영희교사(청소년부)","phone": "01088631798"},
       {"name": "김완수","phone": "0162876452"},
       {"name": "김용국","phone": "0113252274"},
       {"name": "김용균","phone": "0113819306"},
       {"name": "김용복","phone": "01037375203"},
       {"name": "김용순","phone": "0167070055"},
       {"name": "김용준","phone": "01088877824"},
       {"name": "김용현","phone": "01032364432"},
       {"name": "김원석","phone": "0182053969"},
       {"name": "김원순","phone": "0112389412"},
       {"name": "김원철","phone": "01024586069"},
       {"name": "김월순","phone": "01091401831"},
       {"name": "김월순","phone": "01091401831"},
       {"name": "김월순","phone": "01091401831"},
       {"name": "김월순","phone": "01091401831"},
       {"name": "김월순","phone": "01091401831"},
       {"name": "김월순","phone": "01091401831"},
       {"name": "김유준","phone": "01030617278"},
       {"name": "김윤미","phone": "0192560111"},
       {"name": "김윤수","phone": "01089089548"},
       {"name": "김은미","phone": "01056887937"},
       {"name": "김은석","phone": "01051440696"},
       {"name": "김은정(김경민)","phone": "01050629212"},
       {"name": "김은정A","phone": "01077524182"},
       {"name": "김은혜","phone": "01043217527"},
       {"name": "김은혜(임경숙)","phone": "01043217527"},
       {"name": "김은화","phone": "01083960806"},
       {"name": "김은화","phone": "01083960806"},
       {"name": "김은화","phone": "01083960806"},
       {"name": "김은화","phone": "01083960806"},
       {"name": "김은화","phone": "01083960806"},
       {"name": "김은희","phone": "01057715206"},
       {"name": "김이헌","phone": "01040354020"},
       {"name": "김이헌","phone": "01040354020"},
       {"name": "김인덕","phone": "01087629453"},
       {"name": "김인덕","phone": "01087629453"},
       {"name": "김인수","phone": "01033050203"},
       {"name": "김인숙","phone": "01063206821"},
       {"name": "김인자","phone": "01032195441"},
       {"name": "김인철","phone": "01025524624"},
       {"name": "김인태","phone": "01094734291"},
       {"name": "김일순","phone": "01022882057"},
       {"name": "김일순","phone": "01022882057"},
       {"name": "김일춘","phone": "01087426448"},
       {"name": "김일춘","phone": "01087426448"},
       {"name": "김장근","phone": "01098808283"},
       {"name": "김재성","phone": "01022054456"},
       {"name": "김재욱","phone": "01086143726"},
       {"name": "김재익","phone": "01022856800"},
       {"name": "김재준A","phone": "01056561816"},
       {"name": "김재혁","phone": "01075960202"},
       {"name": "김점례","phone": "0168080337"},
       {"name": "김점복","phone": "01084337025"},
       {"name": "김정곤","phone": "0116718978"},
       {"name": "김정규","phone": "01082851249"},
       {"name": "김정규","phone": "01082851249"},
       {"name": "김정규","phone": "01082851249"},
       {"name": "김정미","phone": "01096635790"},
       {"name": "김정미","phone": "01096635790"},
       {"name": "김정미(김정태)","phone": "01089259891"},
       {"name": "김정미(김정태)","phone": "01089259891"},
       {"name": "김정미A(부)","phone": "01096635790"},
       {"name": "김정수","phone": "01089921664"},
       {"name": "김정옥","phone": "01022315903"},
       {"name": "김정옥(부)","phone": "01022315903"},
       {"name": "김정은","phone": "0113065418"},
       {"name": "김정은","phone": "0118888286"},
       {"name": "김정자","phone": "01041442221"},
       {"name": "김정자","phone": "01041442221"},
       {"name": "김정자","phone": "0117264296"},
       {"name": "김정자","phone": "01041442221"},
       {"name": "김정종","phone": "0113562016"},
       {"name": "김정주","phone": "01023060489"},
       {"name": "김정태","phone": "0183258498"},
       {"name": "김정태","phone": "0183258498"},
       {"name": "김정태교사(어린이부)","phone": "0183258498"},
       {"name": "김정환","phone": "01085738869"},
       {"name": "김정환","phone": "01085738869"},
       {"name": "김정희(김)","phone": "01033149128"},
       {"name": "김정희(김)","phone": "01033149128"},
       {"name": "김정희(김)","phone": "01033149128"},
       {"name": "김정희(김)","phone": "01033149128"},
       {"name": "김정희(안)","phone": "01087036528"},
       {"name": "김정희(안)","phone": "01087036528"},
       {"name": "김정희A","phone": "0167054397"},
       {"name": "김정희D","phone": "01074748220"},
       {"name": "김정희D","phone": "01074748220"},
       {"name": "김정희D","phone": "01074748220"},
       {"name": "김정희D","phone": "01074748220"},
       {"name": "김종대","phone": "01094498979"},
       {"name": "김종일","phone": "01049453320"},
       {"name": "김종희","phone": "01053556554"},
       {"name": "김종희","phone": "01030321098"},
       {"name": "김주성(완도횟집)","phone": "01046576476"},
       {"name": "김준석","phone": "01027276575"},
       {"name": "김준석","phone": "01027276575"},
       {"name": "김준성","phone": "01190443699"},
       {"name": "김준영","phone": "01037031997"},
       {"name": "김중구","phone": "01053471616"},
       {"name": "김지나","phone": "01043296001"},
       {"name": "김지만","phone": "01087835270"},
       {"name": "김지만","phone": "01087835270"},
       {"name": "김지석","phone": "01094244020"},
       {"name": "김지석","phone": "01094244020"},
       {"name": "김지영","phone": "01199591575"},
       {"name": "김지윤","phone": "01067900341"},
       {"name": "김지향(김문선)","phone": "01062894441"},
       {"name": "김지헌","phone": "0162371175"},
       {"name": "김지혜(김문선)","phone": "01089232764"},
       {"name": "김지혜(임경숙)","phone": "01191187527"},
       {"name": "김지훈","phone": "01094234111"},
       {"name": "김진원","phone": "0162476166"},
       {"name": "김찬","phone": "01033436049"},
       {"name": "김찬수","phone": "01089383778"},
       {"name": "김창국","phone": "01062597307"},
       {"name": "김창석","phone": "0117051040"},
       {"name": "김창수","phone": "01029958934"},
       {"name": "김창주","phone": "01036918445"},
       {"name": "김철","phone": "01027014275"},
       {"name": "김철수","phone": "01029246909"},
       {"name": "김청옥","phone": "01035017612"},
       {"name": "김초롱","phone": "01087650265"},
       {"name": "김초롱","phone": "01087650265"},
       {"name": "김초롱","phone": "01087650265"},
       {"name": "김춘자","phone": "01031717722"},
       {"name": "김태균","phone": "0173607979"},
       {"name": "김태웅","phone": "01053380609"},
       {"name": "김태웅","phone": "01053380609"},
       {"name": "김태철","phone": "01098000552"},
       {"name": "김태환","phone": "01086045392"},
       {"name": "김하늘","phone": "01033653626"},
       {"name": "김학권","phone": "01026039881"},
       {"name": "김학도","phone": "0107495553"},
       {"name": "김학란","phone": "01027076494"},
       {"name": "김학란","phone": "01027076494"},
       {"name": "김학란","phone": "01027076494"},
       {"name": "김학란","phone": "01027076494"},
       {"name": "김학란","phone": "01027076494"},
       {"name": "김학분","phone": "01094495782"},
       {"name": "김학분","phone": "01094495782"},
       {"name": "김학분","phone": "01094495782"},
       {"name": "김학분","phone": "01094495782"},
       {"name": "김학분","phone": "01094495782"},
       {"name": "김학분","phone": "01094495782"},
       {"name": "김현경","phone": "01057374245"},
       {"name": "김현옥","phone": "01050539151"},
       {"name": "김현옥","phone": "01050539151"},
       {"name": "김현우","phone": "01062230144"},
       {"name": "김현이","phone": "01033459322"},
       {"name": "김현일","phone": "01037764544"},
       {"name": "김현일","phone": "01037764544"},
       {"name": "김현일b","phone": "01075539290"},
       {"name": "김현주","phone": "01067878003"},
       {"name": "김현주","phone": "01055295086"},
       {"name": "김형규","phone": "01088478780"},
       {"name": "김형균","phone": "01087061113"},
       {"name": "김형석","phone": "01066983805"},
       {"name": "김형태","phone": "01022808069"},
       {"name": "김형호","phone": "01046975145"},
       {"name": "김혜광","phone": "0167360191"},
       {"name": "김혜림","phone": "01091718217"},
       {"name": "김혜림","phone": "01091718217"},
       {"name": "김혜숙","phone": "01036379720"},
       {"name": "김혜숙","phone": "0102703295"},
       {"name": "김혜영","phone": "01999594813"},
       {"name": "김효득","phone": "01062721192"},
       {"name": "김효득","phone": "01062721192"},
       {"name": "김효득","phone": "01062721192"},
       {"name": "김효득","phone": "01062721192"},
       {"name": "김효선","phone": "01037115782"},
       {"name": "김효성","phone": "01027277587"},
       {"name": "김효정","phone": "01190499227"},
       {"name": "김희경","phone": "01055959589"},
       {"name": "나경원","phone": "01089840985"},
       {"name": "나광흠","phone": "01071440747"},
       {"name": "나민경","phone": "01020786649"},
       {"name": "나상욱","phone": "01068012458"},
       {"name": "나애숙","phone": "01076507633"},
       {"name": "나여임","phone": "01099595142"},
       {"name": "남광호","phone": "0117773281"},
       {"name": "남궁숙","phone": "01199628642"},
       {"name": "남기업","phone": "01040943143"},
       {"name": "남기창","phone": "01063340691"},
       {"name": "남기창","phone": "01063340691"},
       {"name": "남상옥","phone": "01076271155"},
       {"name": "노기상","phone": "01089225452"},
       {"name": "노기상","phone": "01089225452"},
       {"name": "노기상","phone": "01089225452"},
       {"name": "노기상교사(어린이부)","phone": "01089225452"},
       {"name": "노기운","phone": "01062738730"},
       {"name": "노기운","phone": "01062748730"},
       {"name": "노기운","phone": "01062738730"},
       {"name": "노기운","phone": "01062738730"},
       {"name": "노기운교사(청소년부)","phone": "01062738730"},
       {"name": "노윤보","phone": "01075271416"},
       {"name": "노은비","phone": "01046121319"},
       {"name": "노은비","phone": "01046121319"},
       {"name": "노은비","phone": "01046121319"},
       {"name": "노은비","phone": "01046121319"},
       {"name": "노일환","phone": "01087531268"},
       {"name": "노일환","phone": "01087531268"},
       {"name": "노일환","phone": "01087531268"},
       {"name": "노일환","phone": "01087531268"},
       {"name": "노일환","phone": "01087531268"},
       {"name": "노일환","phone": "01087531268"},
       {"name": "노재열","phone": "01030146191"},
       {"name": "노준래","phone": "01695775176"},
       {"name": "니럼구룽","phone": "01049727556"},
       {"name": "대광화","phone": "01042756789"},
       {"name": "도정아","phone": "01028735551"},
       {"name": "두르가","phone": "0168928857"},
       {"name": "라나산토스","phone": "01024438337"},
       {"name": "람라나","phone": "01086993415"},
       {"name": "러릿사켜","phone": "01086929197"},
       {"name": "러메스우뻐레디","phone": "01049643207"},
       {"name": "레쓰미","phone": "01031649302"},
       {"name": "류경아","phone": "0114908556"},
       {"name": "류리","phone": "01088352277"},
       {"name": "류숙현","phone": "01057041940"},
       {"name": "류숙현","phone": "01057041940"},
       {"name": "류숙현","phone": "01057041940"},
       {"name": "류숙현","phone": "01057041940"},
       {"name": "류숙현","phone": "01057041940"},
       {"name": "류숙현","phone": "01057041940"},
       {"name": "류재동","phone": "01088824264"},
       {"name": "류재섭","phone": "01075444864"},
       {"name": "리효성","phone": "01052261215"},
       {"name": "리효성","phone": "01052261215"},
       {"name": "마경용","phone": "01192538467"},
       {"name": "마복례","phone": "0183214886"},
       {"name": "마선애","phone": "01045883489"},
       {"name": "마형석","phone": "01082456061"},
       {"name": "문기종","phone": "01097113233"},
       {"name": "문미영","phone": "01090084050"},
       {"name": "문승희","phone": "01074940409"},
       {"name": "문영미","phone": "0172074128"},
       {"name": "문예지","phone": "01095553233"},
       {"name": "문원태","phone": "0193387120"},
       {"name": "문은옥","phone": "01087692886"},
       {"name": "문인실","phone": "01091116442"},
       {"name": "문정렬","phone": "01098710600"},
       {"name": "문지영","phone": "01047240301"},
       {"name": "문희석","phone": "01040086730"},
       {"name": "문희석목사님","phone": "01090099191"},
       {"name": "민경자","phone": "01197795548"},
       {"name": "민푸라사드","phone": "01058090207"},
       {"name": "박 준","phone": "01063128157"},
       {"name": "박 현","phone": "01091498157"},
       {"name": "박강욱","phone": "01062391700"},
       {"name": "박강유","phone": "01024118617"},
       {"name": "박건차","phone": "0112395166"},
       {"name": "박경숙","phone": "01028821463"},
       {"name": "박경옥","phone": "01077301673"},
       {"name": "박계명","phone": "01039038619"},
       {"name": "박귀례","phone": "01085775062"},
       {"name": "박규성","phone": "01091740816"},
       {"name": "박금주","phone": "01055999275"},
       {"name": "박금주","phone": "01055999275"},
       {"name": "박남이","phone": "01068060097"},
       {"name": "박동균","phone": "01088212519"},
       {"name": "박동현","phone": "01040403222"},
       {"name": "박만생","phone": "01052447437"},
       {"name": "박명섭","phone": "01094387483"},
       {"name": "박명수","phone": "0172121470"},
       {"name": "박무용","phone": "0113507071"},
       {"name": "박미경","phone": "01199237982"},
       {"name": "박미준","phone": "01090633994"},
       {"name": "박미현","phone": "01197147401"},
       {"name": "박민호","phone": "01037013521"},
       {"name": "박병관","phone": "0113999769"},
       {"name": "박병석","phone": "01052662964"},
       {"name": "박병석","phone": "01052662964"},
       {"name": "박병석","phone": "01052662964"},
       {"name": "박병석","phone": "01052662964"},
       {"name": "박병설","phone": "01197365705"},
       {"name": "박분조","phone": "01084681237"},
       {"name": "박삼엽","phone": "01090733476"},
       {"name": "박삼엽","phone": "01090733476"},
       {"name": "박상화","phone": "01028733787"},
       {"name": "박선호","phone": "01045277088"},
       {"name": "박선호","phone": "01045277088"},
       {"name": "박선호","phone": "01045277088"},
       {"name": "박선호","phone": "01045277088"},
       {"name": "박성주","phone": "01025705088"},
       {"name": "박성철","phone": "01199255471"},
       {"name": "박성태","phone": "01075288737"},
       {"name": "박세라","phone": "01090911940"},
       {"name": "박세라","phone": "01090911940"},
       {"name": "박세원","phone": "01045416688"},
       {"name": "박세훈","phone": "01191853034"},
       {"name": "박세훈","phone": "01191853034"},
       {"name": "박소정","phone": "01058702088"},
       {"name": "박소희","phone": "01077092832"},
       {"name": "박소희","phone": "01077092832"},
       {"name": "박송자","phone": "01093020437"},
       {"name": "박수빈","phone": "01087145345"},
       {"name": "박수진","phone": "01089495181"},
       {"name": "박순영","phone": "01093701820"},
       {"name": "박순정","phone": "01031226372"},
       {"name": "박승렬","phone": "01087802779"},
       {"name": "박승배","phone": "01027472417"},
       {"name": "박승준","phone": "01026688898"},
       {"name": "박양순","phone": "01036646317"},
       {"name": "박양순","phone": "01036646317"},
       {"name": "박양임","phone": "01052220185"},
       {"name": "박영목","phone": "01025747858"},
       {"name": "박영옥","phone": "01041279722"},
       {"name": "박영주","phone": "01064166488"},
       {"name": "박영주","phone": "01064166488"},
       {"name": "박영주","phone": "01064166488"},
       {"name": "박영주","phone": "01064166488"},
       {"name": "박영환","phone": "01099361373"},
       {"name": "박예솔","phone": "01027966820"},
       {"name": "박예솔","phone": "01027966820"},
       {"name": "박예솔","phone": "01027966820"},
       {"name": "박예솔","phone": "01027966820"},
       {"name": "박예솔","phone": "01027966820"},
       {"name": "박요섭","phone": "01089997677"},
       {"name": "박요섭","phone": "01089997677"},
       {"name": "박요섭","phone": "01089997677"},
       {"name": "박요섭교사(어린이부)","phone": "01089997677"},
       {"name": "박용길","phone": "01024941311"},
       {"name": "박용길","phone": "01024941311"},
       {"name": "박용길","phone": "01024941311"},
       {"name": "박용두","phone": "01062828742"},
       {"name": "박용석","phone": "01097785331"},
       {"name": "박용주(권사)","phone": "01083779790"},
       {"name": "박용주(정금례)","phone": "0113856909"},
       {"name": "박용주(정금례)","phone": "0113856909"},
       {"name": "박우준","phone": "01026221940"},
       {"name": "박우준","phone": "01026221940"},
       {"name": "박원빈","phone": "01089027758"},
       {"name": "박유리","phone": "01047894890"},
       {"name": "박유리","phone": "01047894890"},
       {"name": "박유진","phone": "01025244890"},
       {"name": "박은숙","phone": "01052993521"},
       {"name": "박인영","phone": "0163461593"},
       {"name": "박인자(힐러리)","phone": "0112725200"},
       {"name": "박인철","phone": "01197415473"},
       {"name": "박인호","phone": "01089398157"},
       {"name": "박인호","phone": "01089398157"},
       {"name": "박정근","phone": "0118887186"},
       {"name": "박정림","phone": "0167374328"},
       {"name": "박정민","phone": "0117750244"},
       {"name": "박정안","phone": "01074607025"},
       {"name": "박정조","phone": "0113423476"},
       {"name": "박정조","phone": "0113423476"},
       {"name": "박정훈","phone": "01094126494"},
       {"name": "박정훈","phone": "01094126494"},
       {"name": "박정훈","phone": "01094126494"},
       {"name": "박정훈","phone": "01094126494"},
       {"name": "박정훈교사(청소년부)","phone": "01094126494"},
       {"name": "박정희","phone": "01034523618"},
       {"name": "박종관","phone": "01045689905"},
       {"name": "박종부","phone": "01047016244"},
       {"name": "박종부","phone": "01047016244"},
       {"name": "박종천","phone": "01046642673"},
       {"name": "박종화","phone": "01052591348"},
       {"name": "박종훈","phone": "01032549619"},
       {"name": "박준","phone": "01063128157"},
       {"name": "박준","phone": "01063128157"},
       {"name": "박준","phone": "01063128157"},
       {"name": "박준교사(청소년부)","phone": "01063128157"},
       {"name": "박준상","phone": "01031272500"},
       {"name": "박준상","phone": "01031272500"},
       {"name": "박준영","phone": "01041701717"},
       {"name": "박준영","phone": "01041701717"},
       {"name": "박지애","phone": "01099922809"},
       {"name": "박지연b","phone": "01076297703"},
       {"name": "박지영(박병석)","phone": "01091776555"},
       {"name": "박지영(박병석)","phone": "01091776555"},
       {"name": "박지영(정금례)","phone": "01088806908"},
       {"name": "박지영(정금례)","phone": "01088806908"},
       {"name": "박지윤","phone": "01091543477"},
       {"name": "박지윤","phone": "01091543477"},
       {"name": "박지윤","phone": "01091543477"},
       {"name": "박지윤","phone": "01091543477"},
       {"name": "박지혜","phone": "01082404890"},
       {"name": "박지혜","phone": "01082404890"},
       {"name": "박찬식","phone": "01083644890"},
       {"name": "박찬영","phone": "01047673050"},
       {"name": "박찬영","phone": "01047673050"},
       {"name": "박찬일","phone": "01096457010"},
       {"name": "박창인","phone": "0182892460"},
       {"name": "박철수","phone": "0183255727"},
       {"name": "박충하","phone": "01025437982"},
       {"name": "박한석","phone": "01071804950"},
       {"name": "박향원","phone": "01077650330"},
       {"name": "박현","phone": "01091498157"},
       {"name": "박현","phone": "01091498157"},
       {"name": "박현섭","phone": "01020598080"},
       {"name": "박현섭","phone": "01020598080"},
       {"name": "박현수","phone": "01086220699"},
       {"name": "박형구","phone": "01062638401"},
       {"name": "박형길","phone": "01031038191"},
       {"name": "박형준","phone": "01033853888"},
       {"name": "박효미","phone": "01062373221"},
       {"name": "박훈희","phone": "01022641707"},
       {"name": "박흥재","phone": "01042253108"},
       {"name": "박희경","phone": "01051121415"},
       {"name": "방상권","phone": "01055610996"},
       {"name": "방상권","phone": "01055610996"},
       {"name": "방상권","phone": "01055610996"},
       {"name": "방선정","phone": "01044766003"},
       {"name": "방태진","phone": "01021047808"},
       {"name": "방희정","phone": "01022283327"},
       {"name": "배다성","phone": "01028721922"},
       {"name": "배다희","phone": "01084741831"},
       {"name": "배동석","phone": "0112414902"},
       {"name": "배봉금","phone": "01063918340"},
       {"name": "배봉금","phone": "01063918340"},
       {"name": "배봉금","phone": "01063918340"},
       {"name": "배봉금","phone": "01063918340"},
       {"name": "배봉금","phone": "01063918340"},
       {"name": "배봉금","phone": "01063918340"},
       {"name": "배성산","phone": "01072033698"},
       {"name": "배안용","phone": "01027753698"},
       {"name": "배안용","phone": "01027753698"},
       {"name": "배영석","phone": "01082293173"},
       {"name": "배옥심","phone": "01086522773"},
       {"name": "배은순","phone": "01091515681"},
       {"name": "배지숙","phone": "01033128378"},
       {"name": "배진아","phone": "01047493173"},
       {"name": "배창근","phone": "01052601831"},
       {"name": "배창복","phone": "0173042429"},
       {"name": "배태덕","phone": "01020337004"},
       {"name": "배형균","phone": "0172555163"},
       {"name": "백광순","phone": "0113181357"},
       {"name": "백녹수","phone": "01043115044"},
       {"name": "백순임","phone": "01027994265"},
       {"name": "백슬기","phone": "01047380479"},
       {"name": "백슬기","phone": "01047380479"},
       {"name": "백슬기","phone": "01047380479"},
       {"name": "백연숙","phone": "01036404415"},
       {"name": "백영애","phone": "01062303937"},
       {"name": "백준탁","phone": "01197254265"},
       {"name": "백지현","phone": "01054890623"},
       {"name": "백지훈","phone": "01038370648"},
       {"name": "백지훈","phone": "01038370648"},
       {"name": "백지훈","phone": "01038370648"},
       {"name": "백지훈","phone": "01038370648"},
       {"name": "백형준","phone": "0192676136"},
       {"name": "변세경","phone": "01053063069"},
       {"name": "변창만","phone": "01076203028"},
       {"name": "복영규","phone": "0174082426"},
       {"name": "사희자","phone": "01052887796"},
       {"name": "사희자","phone": "01052887796"},
       {"name": "산띠","phone": "01072998337"},
       {"name": "서규진","phone": "01077114550"},
       {"name": "서동석","phone": "0116632714"},
       {"name": "서민호","phone": "01084099089"},
       {"name": "서선자","phone": "01071160265"},
       {"name": "서선자","phone": "01071160265"},
       {"name": "서선자","phone": "01071160265"},
       {"name": "서은경","phone": "0162443104"},
       {"name": "서인순","phone": "01048421172"},
       {"name": "서정덕","phone": "01095712233"},
       {"name": "서정진","phone": "01062300643"},
       {"name": "서정화","phone": "0113735349"},
       {"name": "서준성","phone": "01076140311"},
       {"name": "서청진","phone": "0196853776"},
       {"name": "서청진","phone": "0196853776"},
       {"name": "서태봉","phone": "01030502989"},
       {"name": "서형하","phone": "01098982047"},
       {"name": "석정은","phone": "01063403874"},
       {"name": "석종탁","phone": "0113093996"},
       {"name": "설보라","phone": "01092322883"},
       {"name": "설향자","phone": "01047945082"},
       {"name": "성길상","phone": "0113027977"},
       {"name": "성점자","phone": "0162184440"},
       {"name": "성점자","phone": "0162184440"},
       {"name": "성점자","phone": "0162184440"},
       {"name": "성점자","phone": "0162184440"},
       {"name": "성점자","phone": "0162184440"},
       {"name": "성주경","phone": "01033352386"},
       {"name": "소정희","phone": "01039939715"},
       {"name": "소종호","phone": "01048185270"},
       {"name": "소현주","phone": "01027614153"},
       {"name": "손덕준","phone": "0194806242"},
       {"name": "손성호","phone": "01042259626"},
       {"name": "손성호","phone": "01042259626"},
       {"name": "손성희","phone": "01022534105"},
       {"name": "손성희","phone": "01022534105"},
       {"name": "손승환","phone": "01033560595"},
       {"name": "손유미","phone": "01052558636"},
       {"name": "손정애","phone": "01065802464"},
       {"name": "손정예","phone": "01065802464"},
       {"name": "손지연","phone": "01089085948"},
       {"name": "손진형","phone": "01053257824"},
       {"name": "송금심","phone": "01088134429"},
       {"name": "송민영","phone": "01092268721"},
       {"name": "송상운","phone": "01056070738"},
       {"name": "송순자","phone": "01050602217"},
       {"name": "송영자","phone": "01097668711"},
       {"name": "송인수","phone": "0173416721"},
       {"name": "송재형","phone": "01191342625"},
       {"name": "송주영","phone": "01091888234"},
       {"name": "송진미","phone": "01047556773"},
       {"name": "송찬미","phone": "01039180640"},
       {"name": "송현","phone": "01040023136"},
       {"name": "송혜경","phone": "01191942208"},
       {"name": "수러저조시","phone": "01086877107"},
       {"name": "승성호","phone": "01075571488"},
       {"name": "신계영","phone": "01036252846"},
       {"name": "신계영","phone": "01036252846"},
       {"name": "신계영","phone": "01036252846"},
       {"name": "신국현","phone": "01052480732"},
       {"name": "신덕선","phone": "0113082229"},
       {"name": "신덕선","phone": "0113082229"},
       {"name": "신덕선","phone": "0113082229"},
       {"name": "신덕선","phone": "0113082229"},
       {"name": "신동욱","phone": "0165386603"},
       {"name": "신명옥","phone": "01097976626"},
       {"name": "신수령","phone": "0183401720"},
       {"name": "신순례","phone": "01097792822"},
       {"name": "신순자","phone": "01044047790"},
       {"name": "신승섭","phone": "01097025238"},
       {"name": "신승아","phone": "01042069438"},
       {"name": "신승예","phone": "01191146415"},
       {"name": "신승예","phone": "01191146415"},
       {"name": "신용석","phone": "01098050399"},
       {"name": "신윤지","phone": "01051315590"},
       {"name": "신익호","phone": "01091416331"},
       {"name": "신재선","phone": "0192253347"},
       {"name": "신정숙","phone": "0193597295"},
       {"name": "신정숙","phone": "01023597295"},
       {"name": "신정자","phone": "01073038096"},
       {"name": "신정자","phone": "01073038096"},
       {"name": "신정현","phone": "01071425629"},
       {"name": "신정현","phone": "01087444076"},
       {"name": "신하나","phone": "01025814038"},
       {"name": "신하나","phone": "01025814038"},
       {"name": "신향식","phone": "0196821182"},
       {"name": "신현옥목사","phone": "01082140327"},
       {"name": "심광현","phone": "01191222319"},
       {"name": "심숙희","phone": "01037503056"},
       {"name": "심종환","phone": "01056959003"},
       {"name": "안대훈","phone": "01089454812"},
       {"name": "안영신","phone": "01077203955"},
       {"name": "안원호","phone": "01024126528"},
       {"name": "안재수","phone": "01025437662"},
       {"name": "안정은","phone": "01030292060"},
       {"name": "안정은","phone": "01030292060"},
       {"name": "안정은","phone": "01030292060"},
       {"name": "안정은","phone": "01030292060"},
       {"name": "안정은","phone": "01030292060"},
       {"name": "안정은","phone": "01030292060"},
       {"name": "안정은교사(청소년부)","phone": "01030292060"},
       {"name": "안지훈","phone": "01081774921"},
       {"name": "안지훈","phone": "01081774921"},
       {"name": "안효정","phone": "01020489717"},
       {"name": "안효정","phone": "01020489717"},
       {"name": "안효정","phone": "0116089712"},
       {"name": "안효정","phone": "01020489717"},
       {"name": "안효정교사(청소년부)","phone": "0116089712"},
       {"name": "안희각","phone": "01082298869"},
       {"name": "안희환","phone": "01087835270"},
       {"name": "야서현","phone": "01024580117"},
       {"name": "양기용","phone": "01063973119"},
       {"name": "양다연","phone": "01024622710"},
       {"name": "양미강","phone": "01022690094"},
       {"name": "양미경","phone": "01062833675"},
       {"name": "양미경","phone": "01062833675"},
       {"name": "양미경","phone": "01062833675"},
       {"name": "양미경","phone": "01062833675"},
       {"name": "양미경","phone": "01062833675"},
       {"name": "양성임","phone": "0172792113"},
       {"name": "양성임","phone": "0172792113"},
       {"name": "양성임","phone": "0172792113"},
       {"name": "양성임(부)","phone": "0172792113"},
       {"name": "양소영","phone": "01096860244"},
       {"name": "양승천(남정순)","phone": "01197332260"},
       {"name": "양영임","phone": "01052945544"},
       {"name": "양영임","phone": "01052945544"},
       {"name": "양원석","phone": "01044292265"},
       {"name": "양윤철","phone": "0113062700"},
       {"name": "양천석","phone": "01195549102"},
       {"name": "양희성","phone": "01091582176"},
       {"name": "여경숙","phone": "01199340778"},
       {"name": "여영구","phone": "0192256957"},
       {"name": "여영구","phone": "0192256957"},
       {"name": "여운영","phone": "01086508260"},
       {"name": "여춘자","phone": "01098352215"},
       {"name": "여호수아","phone": "01045958337"},
       {"name": "여호수아","phone": "01045958337"},
       {"name": "연규홍","phone": "0116412714"},
       {"name": "연희락","phone": "01084331346"},
       {"name": "염미화","phone": "01045757946"},
       {"name": "염미화","phone": "01045757946"},
       {"name": "염미화","phone": "01045757946"},
       {"name": "염미화","phone": "01045757946"},
       {"name": "염미화","phone": "01045757946"},
       {"name": "염미화","phone": "01045757946"},
       {"name": "염미화","phone": "01045757946"},
       {"name": "염미화(부)","phone": "01045757946"},
       {"name": "염미화교사(어린이부)","phone": "01045757946"},
       {"name": "예 준","phone": "01093023711"},
       {"name": "오금아","phone": "01099239972"},
       {"name": "오금아","phone": "01099239972"},
       {"name": "오금아","phone": "01099239972"},
       {"name": "오동근","phone": "01052552618"},
       {"name": "오만수","phone": "01197477012"},
       {"name": "오명희","phone": "0162434508"},
       {"name": "오문희","phone": "01032425247"},
       {"name": "오미선","phone": "01082446410"},
       {"name": "오미선(사모님)","phone": "01082446410"},
       {"name": "오미선(사모님)","phone": "01082446410"},
       {"name": "오승주","phone": "0116439233"},
       {"name": "오신환","phone": "01041676596"},
       {"name": "오연순","phone": "01194871541"},
       {"name": "오연순","phone": "01094870170"},
       {"name": "오연희","phone": "01077518384"},
       {"name": "오영희","phone": "01046309357"},
       {"name": "오왕세","phone": "01027501369"},
       {"name": "오왕세","phone": "01027501369"},
       {"name": "오용석","phone": "0192253347"},
       {"name": "오용석","phone": "0192253347"},
       {"name": "오용협","phone": "0169473580"},
       {"name": "오유정","phone": "01026314142"},
       {"name": "오종원","phone": "0114704216"},
       {"name": "오춘선","phone": "01082811668"},
       {"name": "오해룡","phone": "01037192272"},
       {"name": "오활지","phone": "01099143388"},
       {"name": "우경숙","phone": "01032316287"},
       {"name": "우성래","phone": "01026836698"},
       {"name": "우영애","phone": "01064362518"},
       {"name": "우영애","phone": "01064362518"},
       {"name": "우영애","phone": "01064362518"},
       {"name": "우영애","phone": "01064362518"},
       {"name": "우정아","phone": "01099445441"},
       {"name": "우종구","phone": "01197127721"},
       {"name": "원세연","phone": "01042210447"},
       {"name": "원숙희","phone": "0162601420"},
       {"name": "원홍신","phone": "01190617350"},
       {"name": "유경란","phone": "01062430266"},
       {"name": "유경림","phone": "01024355859"},
       {"name": "유경자","phone": "01062968138"},
       {"name": "유근숙","phone": "0162553347"},
       {"name": "유근숙","phone": "0162556781"},
       {"name": "유덕영","phone": "01022812414"},
       {"name": "유동진","phone": "01031674957"},
       {"name": "유미자황동명","phone": "01117376022"},
       {"name": "유범식","phone": "01030702308"},
       {"name": "유병일","phone": "0193642864"},
       {"name": "유서경","phone": "01076709939"},
       {"name": "유선완","phone": "01029878117"},
       {"name": "유성엽","phone": "01031073056"},
       {"name": "유성현","phone": "01032139453"},
       {"name": "유성현","phone": "01032139453"},
       {"name": "유성현","phone": "01032139453"},
       {"name": "유양희","phone": "01052069046"},
       {"name": "유완식","phone": "01050128270"},
       {"name": "유완재","phone": "01054298005"},
       {"name": "유인순","phone": "01026783162"},
       {"name": "유인순","phone": "01026783162"},
       {"name": "유인종","phone": "01075796646"},
       {"name": "유인종","phone": "01075796646"},
       {"name": "유인종","phone": "01075796646"},
       {"name": "유재구","phone": "0114059453"},
       {"name": "유재호","phone": "01047457698"},
       {"name": "유종덕","phone": "01072873007"},
       {"name": "유종옥","phone": "01053971616"},
       {"name": "유주열","phone": "01053964458"},
       {"name": "유주현","phone": "01024689453"},
       {"name": "유주현","phone": "01024689453"},
       {"name": "유중호","phone": "01038758117"},
       {"name": "유중호","phone": "01038758117"},
       {"name": "유찬이","phone": "01045974162"},
       {"name": "유태석","phone": "01041857401"},
       {"name": "유화자","phone": "01093103549"},
       {"name": "유환사","phone": "01079892067"},
       {"name": "유환사","phone": "01079892067"},
       {"name": "유환사","phone": "01097477227"},
       {"name": "육경수","phone": "01085595499"},
       {"name": "육경수","phone": "01085595499"},
       {"name": "육송이","phone": "01041353135"},
       {"name": "윤경희","phone": "01031014238"},
       {"name": "윤경희","phone": "01031014238"},
       {"name": "윤경희","phone": "01031014238"},
       {"name": "윤경희","phone": "01031014238"},
       {"name": "윤경희","phone": "01031014238"},
       {"name": "윤규환","phone": "01090133757"},
       {"name": "윤도중","phone": "01024098059"},
       {"name": "윤미라","phone": "0192633282"},
       {"name": "윤보숙","phone": "01079006073"},
       {"name": "윤보숙","phone": "01079006073"},
       {"name": "윤보숙","phone": "01079006073"},
       {"name": "윤보숙","phone": "01079006073"},
       {"name": "윤복만","phone": "01035487612"},
       {"name": "윤성애","phone": "01053045118"},
       {"name": "윤수진","phone": "0173140539"},
       {"name": "윤순화(권사)","phone": "01088701960"},
       {"name": "윤여송","phone": "0164393728"},
       {"name": "윤영순","phone": "01054432618"},
       {"name": "윤인중","phone": "0116624291"},
       {"name": "윤정실","phone": "01194493100"},
       {"name": "윤정옥","phone": "01047639732"},
       {"name": "윤종기","phone": "01090992437"},
       {"name": "윤종기","phone": "01190992437"},
       {"name": "윤주안","phone": "01053900675"},
       {"name": "윤준철","phone": "01053654750"},
       {"name": "윤지원","phone": "01035101568"},
       {"name": "윤진주","phone": "01090255028"},
       {"name": "윤태호","phone": "01020116178"},
       {"name": "윤혜근","phone": "01031929388"},
       {"name": "윤회선","phone": "01088853459"},
       {"name": "이강무","phone": "0112664746"},
       {"name": "이강호","phone": "01047528587"},
       {"name": "이건화","phone": "0112615876"},
       {"name": "이경숙","phone": "01042564818"},
       {"name": "이경숙","phone": "01042564818"},
       {"name": "이경숙","phone": "01042564818"},
       {"name": "이경숙","phone": "01042564818"},
       {"name": "이경숙","phone": "01042564818"},
       {"name": "이경숙","phone": "01042564818"},
       {"name": "이경숙","phone": "01042564818"},
       {"name": "이경숙","phone": "01042564818"},
       {"name": "이경숙(구)","phone": "01190749797"},
       {"name": "이경애","phone": "01087421256"},
       {"name": "이경애","phone": "01087421256"},
       {"name": "이경옥","phone": "01075743453"},
       {"name": "이경은","phone": "01091907157"},
       {"name": "이경은","phone": "01091907157"},
       {"name": "이경희","phone": "01033618748"},
       {"name": "이광수","phone": "01694662124"},
       {"name": "이귀자","phone": "01099202492"},
       {"name": "이귀자","phone": "01099202492"},
       {"name": "이귀자","phone": "01099202492"},
       {"name": "이귀자","phone": "01099202492"},
       {"name": "이규남","phone": "01099491270"},
       {"name": "이규탁(유순자)","phone": "01096662273"},
       {"name": "이근석","phone": "0112124242"},
       {"name": "이근숙","phone": "01049416287"},
       {"name": "이근숙","phone": "01049416287"},
       {"name": "이근숙","phone": "01049416287"},
       {"name": "이금녀","phone": "01096761909"},
       {"name": "이금옥","phone": "01022913137"},
       {"name": "이기만","phone": "01062632866"},
       {"name": "이기선","phone": "01027005320"},
       {"name": "이기영","phone": "01029514245"},
       {"name": "이기철","phone": "01198841942"},
       {"name": "이단비","phone": "01098568723"},
       {"name": "이단비","phone": "01098568723"},
       {"name": "이대건","phone": "01087710354"},
       {"name": "이대성","phone": "01026560055"},
       {"name": "이대우","phone": "01081814044"},
       {"name": "이동수","phone": "01037433545"},
       {"name": "이동욱","phone": "01047178607"},
       {"name": "이동원","phone": "0117037845"},
       {"name": "이동화","phone": "01073512938"},
       {"name": "이동화","phone": "01073512938"},
       {"name": "이동화","phone": "01073512938"},
       {"name": "이동화(부 )","phone": "01073512938"},
       {"name": "이동희","phone": "0194618292"},
       {"name": "이만영","phone": "01059431224"},
       {"name": "이명희","phone": "01038917796"},
       {"name": "이명희","phone": "01038917796"},
       {"name": "이명희","phone": "01038917796"},
       {"name": "이명희사모","phone": "01090376676"},
       {"name": "이미경","phone": "0194662812"},
       {"name": "이미화","phone": "0166591015"},
       {"name": "이민배","phone": "01030808157"},
       {"name": "이범순","phone": "01062985326"},
       {"name": "이병진","phone": "01041631192"},
       {"name": "이병훈","phone": "0172669477"},
       {"name": "이병희","phone": "01023153789"},
       {"name": "이보근","phone": "01089323645"},
       {"name": "이복남","phone": "01063603606"},
       {"name": "이복남","phone": "01029953606"},
       {"name": "이복례","phone": "01025613730"},
       {"name": "이복순","phone": "01087292229"},
       {"name": "이복이","phone": "01098281824"},
       {"name": "이상진","phone": "01022697579"},
       {"name": "이상진","phone": "01022697579"},
       {"name": "이상진(부)","phone": "01022697579"},
       {"name": "이상필","phone": "01084088516"},
       {"name": "이상필","phone": "01084088516"},
       {"name": "이상하","phone": "01054175250"},
       {"name": "이상하","phone": "01054175250"},
       {"name": "이상하","phone": "01054175250"},
       {"name": "이상한","phone": "01088504433"},
       {"name": "이상호","phone": "01087841603"},
       {"name": "이선영","phone": "01191770092"},
       {"name": "이선자","phone": "0113175564"},
       {"name": "이섭","phone": "0117516362"},
       {"name": "이성문","phone": "01031815801"},
       {"name": "이성순","phone": "01032910929"},
       {"name": "이성원","phone": "01028403233"},
       {"name": "이성자","phone": "01050914399"},
       {"name": "이세진","phone": "01049265815"},
       {"name": "이세훈","phone": "01071070455"},
       {"name": "이소영","phone": "01063705798"},
       {"name": "이소정","phone": "01199247518"},
       {"name": "이송희","phone": "01040755098"},
       {"name": "이수미","phone": "01033066448"},
       {"name": "이수민","phone": "01090098501"},
       {"name": "이수호","phone": "0172319957"},
       {"name": "이순자","phone": "01089923144"},
       {"name": "이순희","phone": "01050350355"},
       {"name": "이승걸","phone": "01037266442"},
       {"name": "이승구","phone": "01054705342"},
       {"name": "이승미","phone": "01036770214"},
       {"name": "이승정","phone": "0175882696"},
       {"name": "이승호","phone": "01075523453"},
       {"name": "이승호교사(청소년부)","phone": "01075523453"},
       {"name": "이연임","phone": "01037948176"},
       {"name": "이영길","phone": "01047026821"},
       {"name": "이영남","phone": "0113354352"},
       {"name": "이영란","phone": "01067992516"},
       {"name": "이영복","phone": "01099021702"},
       {"name": "이영일","phone": "01091313549"},
       {"name": "이영자","phone": "01041619463"},
       {"name": "이영화","phone": "01056778646"},
       {"name": "이옥례","phone": "01091303453"},
       {"name": "이옥례","phone": "01091303453"},
       {"name": "이옥례","phone": "01091303453"},
       {"name": "이옥례","phone": "01091303453"},
       {"name": "이옥분","phone": "01051262409"},
       {"name": "이옥분","phone": "01051262409"},
       {"name": "이용배","phone": "01077736073"},
       {"name": "이용빈","phone": "01047663616"},
       {"name": "이용석","phone": "01087472409"},
       {"name": "이용훈","phone": "01026525864"},
       {"name": "이우재","phone": "01117376022"},
       {"name": "이웅비","phone": "01037156410"},
       {"name": "이웅비","phone": "01037156410"},
       {"name": "이웅비","phone": "01037156410"},
       {"name": "이원구","phone": "01088833115"},
       {"name": "이원표","phone": "01045842498"},
       {"name": "이윤진","phone": "01093230075"},
       {"name": "이은미","phone": "01692381225"},
       {"name": "이은숙","phone": "0194436949"},
       {"name": "이은우","phone": "01190800405"},
       {"name": "이은진","phone": "01071085224"},
       {"name": "이은진","phone": "01071085224"},
       {"name": "이은진","phone": "01071085224"},
       {"name": "이은화","phone": "01089388157"},
       {"name": "이인숙","phone": "01094892367"},
       {"name": "이인숙(부)","phone": "01094892367"},
       {"name": "이인우","phone": "01077392409"},
       {"name": "이인향","phone": "0192703541"},
       {"name": "이재광","phone": "01068007123"},
       {"name": "이재산","phone": "01056336566"},
       {"name": "이재오","phone": "01064907905"},
       {"name": "이재형","phone": "01032737796"},
       {"name": "이점순","phone": "0167032048"},
       {"name": "이정구","phone": "01032637615"},
       {"name": "이정순","phone": "01021082887"},
       {"name": "이정아","phone": "01027888259"},
       {"name": "이정희","phone": "0117925631"},
       {"name": "이정희","phone": "01047154757"},
       {"name": "이정희A","phone": "0117925631"},
       {"name": "이종기","phone": "01197447763"},
       {"name": "이종옥","phone": "01197294439"},
       {"name": "이종옥","phone": "01197294439"},
       {"name": "이종진","phone": "0162425054"},
       {"name": "이종화","phone": "01096419731"},
       {"name": "이주희","phone": "01037329758"},
       {"name": "이준원","phone": "01092806410"},
       {"name": "이준원","phone": "01092806410"},
       {"name": "이준원목사님","phone": "01092806410"},
       {"name": "이준호","phone": "01033761983"},
       {"name": "이증구","phone": "01991618414"},
       {"name": "이지나","phone": "0162220177"},
       {"name": "이지성자매","phone": "01092035674"},
       {"name": "이지윤","phone": "01052688828"},
       {"name": "이지은","phone": "01022003993"},
       {"name": "이진화","phone": "01080605997"},
       {"name": "이차영","phone": "01050699541"},
       {"name": "이창우","phone": "01043174613"},
       {"name": "이창호","phone": "0174202255"},
       {"name": "이창호","phone": "0174202255"},
       {"name": "이창호","phone": "0174202255"},
       {"name": "이채술","phone": "01087623453"},
       {"name": "이철","phone": "01052424918"},
       {"name": "이철식","phone": "01077972127"},
       {"name": "이청산","phone": "01062601004"},
       {"name": "이춘섭","phone": "0192626227"},
       {"name": "이춘준","phone": "01093925435"},
       {"name": "이충희","phone": "0112658307"},
       {"name": "이태동","phone": "0182835283"},
       {"name": "이태순","phone": "01094112271"},
       {"name": "이태용","phone": "01087414981"},
       {"name": "이풍자","phone": "01090339619"},
       {"name": "이한은","phone": "0115241194"},
       {"name": "이한희","phone": "01092920693"},
       {"name": "이한희","phone": "01092920693"},
       {"name": "이한희","phone": "01092920693"},
       {"name": "이해동","phone": "01052859950"},
       {"name": "이해령","phone": "01022671414"},
       {"name": "이해숙","phone": "01087576287"},
       {"name": "이해영","phone": "01025370897"},
       {"name": "이해영","phone": "01025370897"},
       {"name": "이해영","phone": "01025370897"},
       {"name": "이해영","phone": "01025370897"},
       {"name": "이해영","phone": "01025370897"},
       {"name": "이해영","phone": "01025370897"},
       {"name": "이해영","phone": "01025370897"},
       {"name": "이해영","phone": "01025370897"},
       {"name": "이해영","phone": "01025370897"},
       {"name": "이해영","phone": "01025370897"},
       {"name": "이해평","phone": "01057867929"},
       {"name": "이향","phone": "01074470859"},
       {"name": "이향님","phone": "0113942678"},
       {"name": "이혁재","phone": "01028817143"},
       {"name": "이현숙","phone": "0192737143"},
       {"name": "이현우","phone": "01027451738"},
       {"name": "이현재","phone": "01099106773"},
       {"name": "이혜란","phone": "01038416073"},
       {"name": "이혜란","phone": "01038416073"},
       {"name": "이혜명","phone": "01035317815"},
       {"name": "이혜신","phone": "01063793419"},
       {"name": "이혜연","phone": "01063857129"},
       {"name": "이혜진","phone": "01032292779"},
       {"name": "이혜진","phone": "01097757758"},
       {"name": "이호산","phone": "01079348988"},
       {"name": "이호열","phone": "01046311025"},
       {"name": "이호열","phone": "01046311025"},
       {"name": "이홍희","phone": "01034968243"},
       {"name": "이화선","phone": "01083009111"},
       {"name": "이회식","phone": "01055722829"},
       {"name": "이훈규","phone": "01094439720"},
       {"name": "이훈기","phone": "01053087834"},
       {"name": "인금란","phone": "01052336926"},
       {"name": "인승민","phone": "01097009795"},
       {"name": "인영남","phone": "0113100703"},
       {"name": "임광택","phone": "01087555531"},
       {"name": "임광택","phone": "0114431697"},
       {"name": "임금빈","phone": "0112610951"},
       {"name": "임단오","phone": "01050815264"},
       {"name": "임명임","phone": "0113455498"},
       {"name": "임명환","phone": "01067386646"},
       {"name": "임방환","phone": "01027368570"},
       {"name": "임병금","phone": "01096098015"},
       {"name": "임보라","phone": "01090532056"},
       {"name": "임보라","phone": "01082552056"},
       {"name": "임보현","phone": "01022044749"},
       {"name": "임보현","phone": "01022044749"},
       {"name": "임보현","phone": "01022044749"},
       {"name": "임보현","phone": "01022044749"},
       {"name": "임보현","phone": "01022044749"},
       {"name": "임보현","phone": "01022044749"},
       {"name": "임보현","phone": "01022044749"},
       {"name": "임석철","phone": "01037339073"},
       {"name": "임요섭","phone": "01067577185"},
       {"name": "임용복","phone": "01027371071"},
       {"name": "임용순","phone": "0162483707"},
       {"name": "임종자","phone": "01062336031"},
       {"name": "임종호","phone": "01041665146"},
       {"name": "임종호","phone": "01041665146"},
       {"name": "임진숙","phone": "01090672610"},
       {"name": "임태환","phone": "01099628201"},
       {"name": "임한수","phone": "01057903050"},
       {"name": "임현묵","phone": "0193796017"},
       {"name": "임화자","phone": "01027220755"},
       {"name": "장 빈","phone": "01198971255"},
       {"name": "장경진","phone": "0164547480"},
       {"name": "장길배(남귀순)","phone": "01024680192"},
       {"name": "장도자","phone": "01049448302"},
       {"name": "장동완","phone": "01053856906"},
       {"name": "장빈","phone": "01198971255"},
       {"name": "장성준","phone": "01066850031"},
       {"name": "장순영","phone": "01095248900"},
       {"name": "장승철","phone": "0117631145"},
       {"name": "장애화","phone": "01191763000"},
       {"name": "장영래","phone": "01074453739"},
       {"name": "장영숙","phone": "01032734142"},
       {"name": "장영애","phone": "01027031861"},
       {"name": "장은미","phone": "01087285484"},
       {"name": "장익창","phone": "0168698201"},
       {"name": "장재영","phone": "01063790106"},
       {"name": "장정란","phone": "01092843783"},
       {"name": "장정숙","phone": "0196933326"},
       {"name": "장정숙","phone": "0196933326"},
       {"name": "장정숙","phone": "0196933326"},
       {"name": "장정숙","phone": "0196933326"},
       {"name": "장정숙","phone": "0196933326"},
       {"name": "장정숙","phone": "0196933326"},
       {"name": "장정희","phone": "01073997773"},
       {"name": "장준희","phone": "01073178813"},
       {"name": "장태진","phone": "01192533165"},
       {"name": "장형서","phone": "01071892419"},
       {"name": "장희숙","phone": "01036769453"},
       {"name": "장희숙","phone": "01036769453"},
       {"name": "장희숙","phone": "01036769453"},
       {"name": "전계중","phone": "01083022371"},
       {"name": "전기주","phone": "01082551346"},
       {"name": "전두천","phone": "01037654117"},
       {"name": "전미숙","phone": "01068030777"},
       {"name": "전미진","phone": "01190064551"},
       {"name": "전병화","phone": "0112268960"},
       {"name": "전성실","phone": "01052612120"},
       {"name": "전성완","phone": "01091923174"},
       {"name": "전용상","phone": "0113120652"},
       {"name": "전욱창","phone": "01044494800"},
       {"name": "전유복","phone": "01033774440"},
       {"name": "전윤창","phone": "0112505273"},
       {"name": "전은옥","phone": "01191396464"},
       {"name": "전은주","phone": "0172729193"},
       {"name": "전응도","phone": "01087488235"},
       {"name": "전일옥","phone": "01197679591"},
       {"name": "전재현","phone": "01050551581"},
       {"name": "전정선","phone": "01032374432"},
       {"name": "전준규","phone": "0182844551"},
       {"name": "전태호","phone": "01087512133"},
       {"name": "전혜령","phone": "01089284110"},
       {"name": "전혜정","phone": "01063776494"},
       {"name": "전혜정","phone": "01063776494"},
       {"name": "전혜정","phone": "01063776494"},
       {"name": "전호준","phone": "0112987884"},
       {"name": "전훈남","phone": "01024088489"},
       {"name": "정경미","phone": "01063525767"},
       {"name": "정경은","phone": "01098355767"},
       {"name": "정경환","phone": "01062441083"},
       {"name": "정곤아","phone": "01094010950"},
       {"name": "정곤아","phone": "01094010950"},
       {"name": "정공주","phone": "01099888157"},
       {"name": "정관주","phone": "01046192333"},
       {"name": "정교순","phone": "01042004897"},
       {"name": "정금례","phone": "01024614170"},
       {"name": "정금례","phone": "01024614170"},
       {"name": "정금례","phone": "01024614170"},
       {"name": "정금례(부)","phone": "01024614170"},
       {"name": "정금례(부)","phone": "01024614170"},
       {"name": "정금례(부)","phone": "01024614170"},
       {"name": "정금분","phone": "01044477223"},
       {"name": "정금화","phone": "01083555052"},
       {"name": "정대제","phone": "01028002991"},
       {"name": "정도현","phone": "01044927889"},
       {"name": "정동국","phone": "01032812353"},
       {"name": "정문근","phone": "01090565449"},
       {"name": "정미자","phone": "01199626775"},
       {"name": "정보경","phone": "01026058191"},
       {"name": "정석호","phone": "0116759195"},
       {"name": "정선혜","phone": "01192160812"},
       {"name": "정성근","phone": "01039156268"},
       {"name": "정성산","phone": "01726975893"},
       {"name": "정수나","phone": "01056485479"},
       {"name": "정수나","phone": "01056485479"},
       {"name": "정숙희","phone": "01022505959"},
       {"name": "정순님","phone": "01072334583"},
       {"name": "정순님","phone": "01072334583"},
       {"name": "정승일","phone": "01024426258"},
       {"name": "정승희","phone": "01032280292"},
       {"name": "정신일","phone": "0172327402"},
       {"name": "정애님","phone": "0193975578"},
       {"name": "정영자","phone": "01089006953"},
       {"name": "정영자","phone": "01089006953"},
       {"name": "정영화","phone": "01033086287"},
       {"name": "정우현","phone": "01048785592"},
       {"name": "정웅기","phone": "01085593889"},
       {"name": "정웅기","phone": "01085593889"},
       {"name": "정원일","phone": "01088493453"},
       {"name": "정원진","phone": "01048154680"},
       {"name": "정윤교","phone": "01066764802"},
       {"name": "정윤교","phone": "01066764802"},
       {"name": "정윤자","phone": "01030396931"},
       {"name": "정은희","phone": "01030045740"},
       {"name": "정인선","phone": "01082215404"},
       {"name": "정인수","phone": "01020058015"},
       {"name": "정인숙","phone": "01030042345"},
       {"name": "정재옥","phone": "01087705284"},
       {"name": "정재훈","phone": "01022233927"},
       {"name": "정정임","phone": "01031350347"},
       {"name": "정정임","phone": "01031350347"},
       {"name": "정정임","phone": "01031350347"},
       {"name": "정종완","phone": "0117891755"},
       {"name": "정주남","phone": "01090449595"},
       {"name": "정주남","phone": "01090449595"},
       {"name": "정준기","phone": "01047023895"},
       {"name": "정준기","phone": "01047023895"},
       {"name": "정지훈","phone": "01052100738"},
       {"name": "정진","phone": "01088535592"},
       {"name": "정진우","phone": "01032194302"},
       {"name": "정태덕","phone": "01099299957"},
       {"name": "정태은","phone": "01023387586"},
       {"name": "정필순","phone": "01044111754"},
       {"name": "정해식","phone": "01072445005"},
       {"name": "정해연","phone": "01085778758"},
       {"name": "정해용","phone": "0113990023"},
       {"name": "정현남","phone": "01071438983"},
       {"name": "정현진","phone": "01050432547"},
       {"name": "정형섭","phone": "01062754889"},
       {"name": "정호성","phone": "0173270272"},
       {"name": "정화영","phone": "01068754557"},
       {"name": "정환갑","phone": "01049532277"},
       {"name": "정희옥","phone": "01082572811"},
       {"name": "제이슨","phone": "01032176589"},
       {"name": "조가동","phone": "01049852357"},
       {"name": "조강욱","phone": "01062967897"},
       {"name": "조광일","phone": "0164042075"},
       {"name": "조규천","phone": "01027258231"},
       {"name": "조기성","phone": "01076711114"},
       {"name": "조동율","phone": "01090188049"},
       {"name": "조두미","phone": "01048406359"},
       {"name": "조두미","phone": "01048406359"},
       {"name": "조미령","phone": "01066508889"},
       {"name": "조민","phone": "01072600333"},
       {"name": "조민","phone": "01072600333"},
       {"name": "조민연","phone": "01081572947"},
       {"name": "조병철","phone": "01032812699"},
       {"name": "조석훈","phone": "01072028827"},
       {"name": "조성일","phone": "01196066737"},
       {"name": "조성자","phone": "0173607474"},
       {"name": "조성현","phone": "01023826966"},
       {"name": "조수경","phone": "01099077382"},
       {"name": "조수경","phone": "01099077382"},
       {"name": "조수아","phone": "01051544680"},
       {"name": "조영아","phone": "01024006604"},
       {"name": "조우성","phone": "01032415516"},
       {"name": "조원희","phone": "01030650003"},
       {"name": "조은미","phone": "01072213081"},
       {"name": "조은아","phone": "01031649202"},
       {"name": "조익표","phone": "01041129498"},
       {"name": "조정금","phone": "0112664979"},
       {"name": "조정숙","phone": "01090426556"},
       {"name": "조정환","phone": "0186040886"},
       {"name": "조정환","phone": "0186040886"},
       {"name": "조진웅","phone": "0112751696"},
       {"name": "조태형","phone": "01033719322"},
       {"name": "조향미","phone": "01099888095"},
       {"name": "조헌정","phone": "01098755977"},
       {"name": "조현경","phone": "01099998847"},
       {"name": "조현경","phone": "01099998847"},
       {"name": "조현경","phone": "01099998847"},
       {"name": "조현경","phone": "01099998847"},
       {"name": "조혜진","phone": "01032458827"},
       {"name": "조혜진","phone": "01032458827"},
       {"name": "조혜진","phone": "01032458827"},
       {"name": "조혜진","phone": "01032458827"},
       {"name": "조혜진","phone": "01032458827"},
       {"name": "조홍래","phone": "01094246789"},
       {"name": "조희아","phone": "01020668856"},
       {"name": "주대명","phone": "01062747801"},
       {"name": "주만득","phone": "01190305972"},
       {"name": "주만득","phone": "01190305972"},
       {"name": "주영준","phone": "01049456287"},
       {"name": "주정웅","phone": "01044433157"},
       {"name": "주진희","phone": "01032844885"},
       {"name": "주한천","phone": "0117604751"},
       {"name": "주혜수","phone": "01020570934"},
       {"name": "지상종","phone": "01057684566"},
       {"name": "지은진(전도사)","phone": "01083053773"},
       {"name": "지은진(전도사)","phone": "01083053773"},
       {"name": "지정일","phone": "0113273824"},
       {"name": "진대용","phone": "01046429664"},
       {"name": "진상륜","phone": "01072324344"},
       {"name": "진승부","phone": "0112846519"},
       {"name": "진승현","phone": "01086811192"},
       {"name": "진영순","phone": "01047624190"},
       {"name": "진용순","phone": "01043944060"},
       {"name": "진용순","phone": "01043944060"},
       {"name": "진희언","phone": "0182129663"},
       {"name": "차동열","phone": "01099270352"},
       {"name": "차명순","phone": "01087904872"},
       {"name": "차원재","phone": "01077054857"},
       {"name": "차정민","phone": "01077880470"},
       {"name": "차충명","phone": "01086653995"},
       {"name": "차화선","phone": "01055430318"},
       {"name": "채춘석","phone": "0167147565"},
       {"name": "채혜원","phone": "01051563207"},
       {"name": "천미현","phone": "01022041044"},
       {"name": "천병호","phone": "01041773383"},
       {"name": "천숙자","phone": "01041773383"},
       {"name": "천순옥","phone": "01062783889"},
       {"name": "천순옥","phone": "01062783889"},
       {"name": "천순옥","phone": "01062783889"},
       {"name": "천순옥","phone": "01062783889"},
       {"name": "천완순","phone": "01031921418"},
       {"name": "천준호","phone": "01036866341"},
       {"name": "최 용","phone": "01075452945"},
       {"name": "최경우","phone": "01077279152"},
       {"name": "최경우","phone": "01077279152"},
       {"name": "최경원","phone": "0112679246"},
       {"name": "최경혜","phone": "01038882938"},
       {"name": "최광섭","phone": "01020562409"},
       {"name": "최광섭","phone": "01020562409"},
       {"name": "최길용","phone": "01063565240"},
       {"name": "최대영","phone": "01030151006"},
       {"name": "최대욱","phone": "01065754426"},
       {"name": "최도현","phone": "01092986051"},
       {"name": "최도현","phone": "01092986051"},
       {"name": "최동식","phone": "01091767675"},
       {"name": "최문영","phone": "01087652678"},
       {"name": "최미경","phone": "01045935737"},
       {"name": "최미경","phone": "01022700737"},
       {"name": "최바네사","phone": "01067072837"},
       {"name": "최병구","phone": "01093370262"},
       {"name": "최병국","phone": "0117121716"},
       {"name": "최보람","phone": "01099819592"},
       {"name": "최복남","phone": "01062447554"},
       {"name": "최부경","phone": "01197874886"},
       {"name": "최사라","phone": "01032135549"},
       {"name": "최선숙","phone": "01037805629"},
       {"name": "최선숙","phone": "01037805629"},
       {"name": "최선숙","phone": "01037805629"},
       {"name": "최선숙","phone": "01037805629"},
       {"name": "최선숙","phone": "01037805629"},
       {"name": "최선숙","phone": "01037805629"},
       {"name": "최소연","phone": "01052547708"},
       {"name": "최소원","phone": "01197872939"},
       {"name": "최수민","phone": "01198233775"},
       {"name": "최수웅","phone": "01089544016"},
       {"name": "최순예","phone": "01048605110"},
       {"name": "최순이","phone": "01034544422"},
       {"name": "최승학","phone": "01053604069"},
       {"name": "최시준","phone": "01036312945"},
       {"name": "최연숙","phone": "01089226534"},
       {"name": "최연숙","phone": "01089226534"},
       {"name": "최연숙","phone": "01089226534"},
       {"name": "최연숙","phone": "01089226534"},
       {"name": "최연숙","phone": "01089226534"},
       {"name": "최연숙","phone": "01089226534"},
       {"name": "최연숙","phone": "01089226534"},
       {"name": "최연숙","phone": "01089226534"},
       {"name": "최영","phone": "01089211960"},
       {"name": "최영란","phone": "01024472127"},
       {"name": "최영란 서울노회장로","phone": "01082506112"},
       {"name": "최영민","phone": "01047490283"},
       {"name": "최영수(새신자)","phone": "01034768659"},
       {"name": "최영수(홍은실)","phone": "01098905124"},
       {"name": "최영철","phone": "0116152872"},
       {"name": "최영환","phone": "01054255899"},
       {"name": "최옥자","phone": "07089546365"},
       {"name": "최옥주","phone": "01033305228"},
       {"name": "최용민","phone": "01029813007"},
       {"name": "최용철","phone": "01049988605"},
       {"name": "최윤관","phone": "01032104169"},
       {"name": "최윤선","phone": "01066943885"},
       {"name": "최윤선","phone": "01066943885"},
       {"name": "최윤정","phone": "01038883574"},
       {"name": "최윤태","phone": "01023157731"},
       {"name": "최윤희","phone": "0172152354"},
       {"name": "최윤희","phone": "0172152345"},
       {"name": "최은혜","phone": "01032870262"},
       {"name": "최의팔","phone": "01023157731"},
       {"name": "최의혁","phone": "01053073804"},
       {"name": "최인근","phone": "01073929969"},
       {"name": "최인근","phone": "01073929969"},
       {"name": "최인숙","phone": "01190727441"},
       {"name": "최인숙2","phone": "01029512653"},
       {"name": "최인현","phone": "01092846045"},
       {"name": "최재수","phone": "0112021604"},
       {"name": "최재운","phone": "01052970119"},
       {"name": "최정은","phone": "01031760500"},
       {"name": "최종학","phone": "01087542044"},
       {"name": "최주석","phone": "0164765521"},
       {"name": "최지은","phone": "01092475570"},
       {"name": "최진봉","phone": "01090426575"},
       {"name": "최진봉","phone": "01090426575"},
       {"name": "최진봉","phone": "01090426575"},
       {"name": "최진봉","phone": "01090426575"},
       {"name": "최진봉","phone": "01090426575"},
       {"name": "최행권","phone": "01077217289"},
       {"name": "최행림","phone": "01027663103"},
       {"name": "최헌석","phone": "01030883838"},
       {"name": "최현아","phone": "01085886229"},
       {"name": "최홍주","phone": "01022032768"},
       {"name": "최희란","phone": "01077392409"},
       {"name": "최희선","phone": "01056713119"},
       {"name": "최희선","phone": "01056713119"},
       {"name": "최희선","phone": "01056713119"},
       {"name": "최희선(부)","phone": "01056713119"},
       {"name": "최희선부장(어린이부)","phone": "01056713119"},
       {"name": "추영애","phone": "0163834471"},
       {"name": "켐구릉","phone": "0198249672"},
       {"name": "키란","phone": "01076135413"},
       {"name": "키란","phone": "01076135413"},
       {"name": "파담사인","phone": "01058890124"},
       {"name": "파완쿠마","phone": "01086721730"},
       {"name": "편정희","phone": "0117200543"},
       {"name": "하동우","phone": "01063343656"},
       {"name": "하수원","phone": "01198957527"},
       {"name": "하영자","phone": "01077561810"},
       {"name": "하태영","phone": "0183840122"},
       {"name": "한광수","phone": "01090602959"},
       {"name": "한국염","phone": "01087810451"},
       {"name": "한기선","phone": "01047454424"},
       {"name": "한기선","phone": "01047454424"},
       {"name": "한낙규","phone": "0117616611"},
       {"name": "한동훈","phone": "01050126415"},
       {"name": "한동훈","phone": "01050126415"},
       {"name": "한만숙","phone": "01082400262"},
       {"name": "한배호","phone": "01088198682"},
       {"name": "한백수","phone": "01090724979"},
       {"name": "한연자","phone": "01062186923"},
       {"name": "한영애","phone": "01089564405"},
       {"name": "한영준","phone": "01047335551"},
       {"name": "한영준","phone": "01047335551"},
       {"name": "한옥헌","phone": "01027120898"},
       {"name": "한옥헌","phone": "01027120898"},
       {"name": "한옥헌","phone": "01027120898"},
       {"name": "한옥헌","phone": "01027120898"},
       {"name": "한옥헌","phone": "01027120898"},
       {"name": "한옥헌","phone": "01027120898"},
       {"name": "한옥헌","phone": "01027120898"},
       {"name": "한옥헌","phone": "01027120898"},
       {"name": "한옥헌","phone": "01027120898"},
       {"name": "한옥헌부장(청소년부)","phone": "01027120898"},
       {"name": "한은숙","phone": "01037224890"},
       {"name": "한은숙","phone": "01037224890"},
       {"name": "한은숙","phone": "01037224890"},
       {"name": "한은숙","phone": "01037224890"},
       {"name": "한은지","phone": "01099207434"},
       {"name": "한정례","phone": "01052402353"},
       {"name": "한정례","phone": "01052402353"},
       {"name": "한지혜","phone": "01043009272"},
       {"name": "한지희","phone": "01049497637"},
       {"name": "한지희","phone": "01049497637"},
       {"name": "한호원","phone": "01063360766"},
       {"name": "함도길","phone": "01079263588"},
       {"name": "함도길","phone": "01079263588"},
       {"name": "함주완","phone": "01084943457"},
       {"name": "함주현","phone": "01032603874"},
       {"name": "허경숙전도사","phone": "01191519191"},
       {"name": "허경숙전도사","phone": "01191519191"},
       {"name": "허광섭","phone": "0117571883"},
       {"name": "허광섭","phone": "0117571883"},
       {"name": "허리스빨","phone": "01057882417"},
       {"name": "허미현","phone": "01030890807"},
       {"name": "허세련","phone": "01695697870"},
       {"name": "허영숙","phone": "01191939327"},
       {"name": "허용호","phone": "01068801018"},
       {"name": "허원희","phone": "0172372615"},
       {"name": "허정강","phone": "01056574950"},
       {"name": "허지윤","phone": "01040521648"},
       {"name": "허태영","phone": "01032103132"},
       {"name": "현민석","phone": "0116620925"},
       {"name": "현민주","phone": "01034054105"},
       {"name": "현봉철","phone": "01032944105"},
       {"name": "현순미","phone": "0113355203"},
       {"name": "현유진","phone": "01025760805"},
       {"name": "현정옥","phone": "01038158765"},
       {"name": "홍명한","phone": "01099818883"},
       {"name": "홍묘희","phone": "01082264921"},
       {"name": "홍석원","phone": "0117809490"},
       {"name": "홍승명","phone": "01030812563"},
       {"name": "홍예지","phone": "01071753606"},
       {"name": "홍웅기","phone": "01062680301"},
       {"name": "홍유진","phone": "01050995270"},
       {"name": "홍윤서","phone": "01092229951"},
       {"name": "홍은실","phone": "01097701787"},
       {"name": "홍의정","phone": "01090203336"},
       {"name": "홍의정","phone": "01090203336"},
       {"name": "홍의정","phone": "01090203336"},
       {"name": "홍의정","phone": "01090203336"},
       {"name": "홍인선","phone": "0193209296"},
       {"name": "홍준범","phone": "01072261682"},
       {"name": "홍준범","phone": "01072261682"},
       {"name": "홍창민목사님","phone": "01054940234"},
       {"name": "홍효림","phone": "01047086470"},
       {"name": "홍효림","phone": "01047086470"},
       {"name": "황겸택","phone": "01030136825"},
       {"name": "황동명","phone": "01064246534"},
       {"name": "황동명","phone": "01064246534"},
       {"name": "황동명","phone": "01064246534"},
       {"name": "황동명","phone": "01064246534"},
       {"name": "황동명","phone": "01064246534"},
       {"name": "황문경","phone": "01091753352"},
       {"name": "황문자","phone": "01041821950"},
       {"name": "황문자","phone": "01041821950"},
       {"name": "황문자","phone": "01041821950"},
       {"name": "황문자","phone": "01041821950"},
       {"name": "황문자","phone": "01041821950"},
       {"name": "황문자","phone": "01041821950"},
       {"name": "황병건","phone": "01072362050"},
       {"name": "황병주","phone": "01117405903"},
       {"name": "황성호","phone": "01057676786"},
       {"name": "황세택","phone": "01026685903"},
       {"name": "황세택","phone": "01026685903"},
       {"name": "황세택","phone": "01026685903"},
       {"name": "황세택","phone": "01026685903"},
       {"name": "황신용","phone": "01024009342"},
       {"name": "황윤길","phone": "0113112717"},
       {"name": "황윤길","phone": "0113112717"},
       {"name": "황인갑","phone": "0166848007"},
       {"name": "황인자","phone": "01052095163"},
       {"name": "황인자","phone": "01052095163"},
       {"name": "황점순","phone": "01039424864"},
       {"name": "황지은","phone": "01093109443"},
       {"name": "황진우","phone": "01035467019"},
       {"name": "황현구","phone": "01085296229"},
       {"name": "황호인","phone": "01037406519"},
       {"name": "황호인","phone": "01037406519"},
       {"name": "황호인","phone": "01037406519"},
       {"name": "황호인","phone": "01037406519"},
       {"name": "Grung Caravan","phone": "01023346649"}
   ]
}